…
-   Which artist has been **featured** on the most Billboard charting
    songs?

``` r
Artist <- BillSongs$artist
Artistsub <- str_detect(Artist, '.featuring.')
Artist2 <- tibble(Artist, Artistsub)
Artist2 %>% 
  filter(Artistsub == "TRUE") %>%
  mutate(Featured = )
```

    ## # A tibble: 1,527 x 2
    ##    Artist                                               Artistsub
    ##    <chr>                                                <lgl>    
    ##  1 MARK RONSON featuring BRUNO MARS                     TRUE     
    ##  2 USHER featuring JUICY J                              TRUE     
    ##  3 NICKI MINAJ featuring DRAKE, LIL WAYNE & CHRIS BROWN TRUE     
    ##  4 NICKI MINAJ featuring DRAKE & LIL WAYNE              TRUE     
    ##  5 NE-YO featuring JUICY J                              TRUE     
    ##  6 BIG SEAN featuring E-40                              TRUE     
    ##  7 NATALIE LA ROSE featuring JEREMIH                    TRUE     
    ##  8 FLO RIDA featuring SAGE THE GEMINI & LOOKAS          TRUE     
    ##  9 CALVIN HARRIS featuring ELLIE GOULDING               TRUE     
    ## 10 BLAKE SHELTON featuring ASHLEY MONROE                TRUE     
    ## # … with 1,517 more rows
…
